Mise à niveau R
…
Bagarre (2)

Travail fastidieux :

prévoir du temps

capitaliser.

mon_tibble

## # A tibble: 46 × 3
##   spName                 Abondance Surface
##   <chr>                      <int>   <dbl>
## 1 Eperua_falcata               266   5.68 
## 2 Eperua_grandiflora            67   1.50 
## 3 Vouacapoua_americana          91   1.44 
## 4 Dicorynia_guianensis          44   0.762
## 5 Recordoxylon_speciosum        31   0.438
## # … with 41 more rows
…
